^D:\++\CONSOLEAPPLICATION3\CONSOLEAPPLICATION3.CPP
D:\++\CONSOLEAPPLICATION3\X64\DEBUG\VC143.PDB
D:\++\CONSOLEAPPLICATION3\X64\DEBUG\VC143.IDB
D:\++\CONSOLEAPPLICATION3\X64\DEBUG\CONSOLEAPPLICATION3.OBJ
