^D:\++\CONSOLEAPPLICATION3\X64\DEBUG\CONSOLEAPPLICATION3.OBJ
D:\++\CONSOLEAPPLICATION3\X64\DEBUG\CONSOLEAPPLICATION3.ILK
D:\++\CONSOLEAPPLICATION3\X64\DEBUG\CONSOLEAPPLICATION3.EXE
D:\++\CONSOLEAPPLICATION3\X64\DEBUG\CONSOLEAPPLICATION3.PDB
